{
  "__comment": "This is a sample configuration JSON file. NOTE: the mustache braces for golang string interpolation",
  "name": "some name",
  "environmentSpecificValue": "{{ .Values.configMapFiles.myconfigJson.environmentSpecificValue }}",
  "amount": "{{ .Values.configMapFiles.myconfigJson.amount }}",
  "__comment2": "This allows the use of variables within a JSON file that will be mounted into the container, but the values would come from the helm values.yaml file!!!!"
}